<?xml version="1.0" encoding="utf-8"?>
<!-- Generator: Adobe Illustrator 19.0.0, SVG Export Plug-In . SVG Version: 6.00 Build 0)  -->
<svg version="1.1" id="Capa_1" xmlns="http://www.w3.org/2000/svg" xmlns:xlink="http://www.w3.org/1999/xlink" x="0px" y="0px"
	 viewBox="-201 40 467 467" style="enable-background:new -201 40 467 467;" xml:space="preserve">
<style type="text/css">
	.st0{opacity:0.9;fill:#0F131A;enable-background:new    ;}
	.st1{opacity:0.9;fill:none;stroke:#B64B38;stroke-width:23;stroke-miterlimit:10;enable-background:new    ;}
	.st2{opacity:0.9;}
	.st3{fill:#B64B38;}
</style>
<g>
	<circle class="st0" cx="34" cy="274.1" r="227"/>
	<circle class="st1" cx="34" cy="274.1" r="220"/>
	<g class="st2">
		<path class="st3" d="M123.7,269.9L-5.2,195.5c-3.3-1.9-7.3-1.9-10.6,0s-5.3,5.4-5.3,9.2v148.8c0,3.8,2,7.3,5.3,9.2
			c1.6,1,3.5,1.4,5.3,1.4s3.6-0.5,5.3-1.4l128.9-74.4c3.3-1.9,5.3-5.4,5.3-9.2S127,271.8,123.7,269.9z"/>
	</g>
</g>
</svg>
